<svg
   xmlns:dc="http://purl.org/dc/elements/1.1/"
   xmlns:svg="http://www.w3.org/2000/svg"
   xmlns="http://www.w3.org/2000/svg"
   width="432.64764pt"
   height="687.47186pt"
   fill="#000000"
   viewBox="0 0 432.64765 813.07422"
   preserveAspectRatio="xMidYMid meet"
   id="svg921"
>
  <defs
     id="defs925" />
  <g
     transform="matrix(0.09942496,0,0,-0.09975306,-77.8967,897.08828)"
     fill="#ffffff"
     stroke="none"
     id="g919">
    <g
       id="g901"
       transform="matrix(0.85463121,0,0,0.89779789,546.03861,1668.0776)"
    >
      <path
         d="m 2980,7475 c 0,-300 3,-545 8,-546 4,0 64,-1 135,-2 l 127,-2 v 548 547 h -135 -135 z"
         id="path899"
      />
    </g>
    <g
       id="g905"
       transform="matrix(0.81417819,0,0,0.83334364,566.65693,1816.9829)"
    >
      <path
         d="m 4838.5501,8112.8996 c -81.8755,-66.7953 -116.5151,-95.8836 -219.3843,-177.7618 -46.1862,-37.707 -100.7698,-80.8008 -120.7139,-96.9609 -19.944,-16.1602 -73.4779,-59.254 -120.7138,-96.961 -46.1862,-37.7071 -100.7698,-80.8008 -120.7139,-96.961 -19.944,-16.1602 -73.478,-59.2539 -120.7138,-96.961 -46.1862,-37.707 -100.7698,-80.8008 -120.7139,-96.961 -19.944,-16.1601 -82.9251,-66.7953 -140.6578,-113.1211 -57.7328,-45.2485 -111.2667,-89.4196 -118.6145,-96.961 -15.7453,-16.1601 -20.9937,-7.5414 85.0245,-146.5188 l 72.4283,-93.7289 37.7887,31.243 c 22.0434,17.2375 282.3655,226.2422 580.4762,465.4126 298.1107,239.1705 542.6875,439.5565 543.7372,443.8659 3.149,10.7734 -156.4032,223.0102 -166.9,223.0102 -4.1988,0 -35.6894,-22.6242 -70.329,-50.6352 z"
         id="path903"
      />
    </g>
    <g
       id="g909"
       transform="matrix(0.78395734,0,0,0.82856866,801.82894,2226.4982)"
    >
      <path
         d="m 2023.8114,6598.6511 c -0.8557,-0.8787 -49.6279,-3.5147 -108.6679,-7.0294 -59.0401,-2.636 -114.6575,-7.0294 -124.0697,-8.7867 -9.4122,-1.7574 -35.9374,-6.1507 -58.1844,-8.7867 -224.1811,-33.3896 -416.703,-106.3194 -587.8336,-220.5468 -237.87157,-159.9183 -416.70305,-441.9721 -470.60918,-742.4779 -5.98958,-31.6322 -11.12349,-63.2644 -12.8348,-70.2938 -1.7113,-7.0294 -5.13392,-38.6616 -8.55653,-70.2938 -2.56696,-31.6322 -6.84522,-68.5364 -9.41218,-83.4739 -20.53567,-151.1316 -20.53567,-2924.221 0,-3075.3526 2.56696,-14.0587 6.84522,-53.599 9.41218,-87.8672 6.84523,-72.0511 7.70088,-79.0805 15.40175,-114.2274 3.42262,-14.0587 7.70088,-39.5402 10.26784,-56.235 9.41218,-58.871 64.17397,-217.9107 100.1114,-290.8405 86.42095,-174.8558 207.06802,-317.2007 353.38472,-418.2479 202.7898,-139.7089 441.5169,-218.7894 740.1398,-246.0282 130.0593,-11.4228 566.4423,-4.3934 590.4006,9.6654 2.5669,0.8786 24.8139,4.3933 49.6278,7.908 214.7689,26.3602 493.7118,140.5876 656.2859,268.8737 50.4835,39.5402 184.821,188.0358 219.0471,241.6348 109.5236,170.4624 183.9654,390.1305 201.0785,588.7104 2.567,28.9962 5.9896,57.9923 8.5565,64.143 23.1027,76.4445 22.247,2906.6476 -1.7113,3147.4038 -65.8853,666.0335 -456.9187,1064.072 -1132.8845,1155.4539 -73.5862,9.6654 -429.5378,22.8455 -438.95,16.6948 z m 322.5812,-595.7398 c 248.995,-60.6283 400.4456,-239.8775 453.4961,-536.8687 5.1339,-24.6028 8.5565,-51.8416 17.9687,-131.8008 23.9582,-195.9439 23.1026,-2712.461 -0.8557,-2983.092 -31.6592,-366.4063 -179.6871,-585.1957 -444.0839,-655.4895 -71.0192,-18.4521 -91.5549,-20.2094 -265.2524,-17.5734 -103.534,0.8786 -195.9445,4.3933 -206.2124,7.0294 -164.2853,47.4482 -236.1602,92.2605 -323.4368,204.7306 -39.36,50.0843 -68.4522,104.562 -93.2662,175.7344 -34.2261,101.0473 -48.7722,177.4918 -61.607,329.5021 -22.247,267.995 -21.3913,2653.59 0.8557,2917.1916 29.0922,341.8035 138.6157,546.5341 346.5394,644.9454 103.534,49.2056 157.4402,57.1137 367.0751,54.4777 100.9671,-1.7574 195.0889,-5.2721 208.7794,-8.7868 z"
         id="path907"
      />
    </g>
    <g
       id="g913"
       transform="matrix(0.85463121,0,0,0.89779789,514.06937,1709.3681)"
      >
      <path
         d="m 3960,6265 v -135 h 698 697 v 135 135 h -697 -698 z"
         id="path911"
      />
    </g>
    <g
       id="g917"
       transform="matrix(0.85393996,0,0,0.86849903,1016.5439,2401.0938)">
      <path
         d="m 1517,613 c -1,0 -274,-3 -607,-6 C 328,602 303,602 258,582 195,554 134,497 102,436 66,367 64,249 98,179 127,119 187,59 247,29 L 295,5 710,6 c 228,1 876,4 1440,7 1090,7 1061,5 1137,54 122,77 171,250 108,378 -32,66 -106,134 -171,158 -46,17 -101,18 -877,15 -456,-2 -829,-4 -830,-5 z"
         id="path915"
      />
    </g>
  </g>
</svg>
